{
  "profiles": {
    "CompareBinaries": {
      "commandName": "Project",
      "commandLineArgs": "-binary1 F:\\bitbucket\\comparebinaries2\\bin\\Release\\netcoreapp3.1\\test\\CompareBinaries.exe -binary2 F:\\bitbucket\\comparebinaries2\\bin\\Release\\netcoreapp3.1\\test\\CompareBinaries1.exe -verbose"
    }
  }
}